[{"line":1,"elements":[{"line":19,"name":"get user details - query","description":"","id":"get-user-details---query","type":"scenario","keyword":"Scenario","steps":[{"name":"def query = {name:'ABC', id: 1688, email:'XYZ@gmail.com'}","result":{"duration":2946063,"status":"passed"},"match":{"location":"karate","arguments":[]},"keyword":"*","line":20},{"name":"url baseUrl+'\/public\/v1\/users'","result":{"duration":3387620,"status":"passed"},"match":{"location":"karate","arguments":[]},"keyword":"Given","line":21},{"name":"params query","result":{"duration":328814,"status":"passed"},"match":{"location":"karate","arguments":[]},"keyword":"And","line":22},{"name":"method GET","result":{"duration":902766975,"status":"passed"},"match":{"location":"karate","arguments":[]},"keyword":"When","line":23,"doc_string":{"content_type":"","value":"21:33:58.582 request:\n1 > GET https:\/\/gorest.co.in\/public\/v1\/users?name=ABC&id=1688&email=XYZ%40gmail.com\n1 > Accept-Encoding: gzip,deflate\n1 > Connection: Keep-Alive\n1 > Host: gorest.co.in\n1 > User-Agent: Apache-HttpClient\/4.5.12 (Java\/1.8.0_261)\n\n21:33:59.070 response time in milliseconds: 483.07\n1 < 200\n1 < Cache-Control: max-age=0, private, must-revalidate\n1 < Connection: keep-alive\n1 < Content-Type: application\/json; charset=utf-8\n1 < Date: Tue, 21 Dec 2021 16:03:58 GMT\n1 < ETag: W\/\"6a49d4914632defbefa7cdc8810310af\"\n1 < Referrer-Policy: strict-origin-when-cross-origin\n1 < Server: nginx\n1 < Strict-Transport-Security: max-age=63072000; includeSubDomains\n1 < Transfer-Encoding: chunked\n1 < Vary: [Accept-Encoding, Origin]\n1 < X-Content-Type-Options: nosniff\n1 < X-Download-Options: noopen\n1 < X-Frame-Options: SAMEORIGIN\n1 < X-Permitted-Cross-Domain-Policies: none\n1 < X-Request-Id: 3ef53aa7-f80b-4c42-882e-f6de2e77fac6\n1 < X-Runtime: 0.006841\n1 < X-XSS-Protection: 0\n{\"meta\":{\"pagination\":{\"total\":1,\"pages\":1,\"page\":1,\"limit\":20,\"links\":{\"previous\":null,\"current\":\"https:\/\/gorest.co.in\/public\/v1\/users?page=1\",\"next\":null}}},\"data\":[{\"id\":1688,\"name\":\"ABC\",\"email\":\"XYZ@gmail.com\",\"gender\":\"male\",\"status\":\"active\"}]}","line":23}},{"name":"status 200","result":{"duration":14041,"status":"passed"},"match":{"location":"karate","arguments":[]},"keyword":"Then","line":24}]},{"line":26,"name":"get user details - query1","description":"","id":"get-user-details---query1","type":"scenario","keyword":"Scenario","steps":[{"name":"def query = {status:'active'}","result":{"duration":103438,"status":"passed"},"match":{"location":"karate","arguments":[]},"keyword":"*","line":27},{"name":"url baseUrl+'\/public\/v1\/users'","result":{"duration":396807,"status":"passed"},"match":{"location":"karate","arguments":[]},"keyword":"Given","line":28},{"name":"params query","result":{"duration":101422,"status":"passed"},"match":{"location":"karate","arguments":[]},"keyword":"And","line":29},{"name":"method GET","result":{"duration":155395487,"status":"passed"},"match":{"location":"karate","arguments":[]},"keyword":"When","line":30,"doc_string":{"content_type":"","value":"21:33:59.079 request:\n1 > GET https:\/\/gorest.co.in\/public\/v1\/users?status=active\n1 > Accept-Encoding: gzip,deflate\n1 > Connection: Keep-Alive\n1 > Host: gorest.co.in\n1 > User-Agent: Apache-HttpClient\/4.5.12 (Java\/1.8.0_261)\n\n21:33:59.233 response time in milliseconds: 152.89\n1 < 200\n1 < Cache-Control: max-age=0, private, must-revalidate\n1 < Connection: keep-alive\n1 < Content-Type: application\/json; charset=utf-8\n1 < Date: Tue, 21 Dec 2021 16:03:59 GMT\n1 < ETag: W\/\"6d14e4439eefef9cb027e14337768ea7\"\n1 < Referrer-Policy: strict-origin-when-cross-origin\n1 < Server: nginx\n1 < Strict-Transport-Security: max-age=63072000; includeSubDomains\n1 < Transfer-Encoding: chunked\n1 < Vary: [Accept-Encoding, Origin]\n1 < X-Content-Type-Options: nosniff\n1 < X-Download-Options: noopen\n1 < X-Frame-Options: SAMEORIGIN\n1 < X-Permitted-Cross-Domain-Policies: none\n1 < X-Request-Id: 8c206057-e8d7-423e-a6bf-5daa193d4516\n1 < X-Runtime: 0.007275\n1 < X-XSS-Protection: 0\n{\"meta\":{\"pagination\":{\"total\":1140,\"pages\":57,\"page\":1,\"limit\":20,\"links\":{\"previous\":null,\"current\":\"https:\/\/gorest.co.in\/public\/v1\/users?page=1\",\"next\":\"https:\/\/gorest.co.in\/public\/v1\/users?page=2\"}}},\"data\":[{\"id\":1688,\"name\":\"ABC\",\"email\":\"XYZ@gmail.com\",\"gender\":\"male\",\"status\":\"active\"},{\"id\":2078,\"name\":\"Vladimir Kuzmitsky\",\"email\":\"v.kuzmitsky@gmail.com\",\"gender\":\"male\",\"status\":\"active\"},{\"id\":2079,\"name\":\"Brandon Williamson\",\"email\":\"Nettie97@yahoo.com\",\"gender\":\"male\",\"status\":\"active\"},{\"id\":1691,\"name\":\"Sharvari\",\"email\":\"test@example.com\",\"gender\":\"male\",\"status\":\"active\"},{\"id\":2080,\"name\":\"Michael Poo\",\"email\":\"1npxS1xOo5@mail.ru\",\"gender\":\"male\",\"status\":\"active\"},{\"id\":2081,\"name\":\"Hakobioos\",\"email\":\"Hakobioos@gmaill.com\",\"gender\":\"male\",\"status\":\"active\"},{\"id\":2082,\"name\":\"Hakobiolos\",\"email\":\"Hakobiooos@gmaill.com\",\"gender\":\"male\",\"status\":\"active\"},{\"id\":12,\"name\":\"Msgr. Tara Trivedi\",\"email\":\"tara_trivedi_msgr@auer.co\",\"gender\":\"male\",\"status\":\"active\"},{\"id\":13,\"name\":\"Chaturaanan Kakkar\",\"email\":\"kakkar_chaturaanan@yost.com\",\"gender\":\"male\",\"status\":\"active\"},{\"id\":15,\"name\":\"Chandani Embranthiri\",\"email\":\"chandani_embranthiri@thompson-feeney.com\",\"gender\":\"male\",\"status\":\"active\"},{\"id\":68,\"name\":\"Balaji Petkar\",\"email\":\"Lifeofrules@gmail.com\",\"gender\":\"male\",\"status\":\"active\"},{\"id\":20,\"name\":\"Chidambaram Tagore\",\"email\":\"tagore_chidambaram@rogahn.info\",\"gender\":\"female\",\"status\":\"active\"},{\"id\":21,\"name\":\"Chandrakala Rana\",\"email\":\"rana_chandrakala@hayes.io\",\"gender\":\"female\",\"status\":\"active\"},{\"id\":23,\"name\":\"Chidaakaash Johar DDS\",\"email\":\"chidaakaash_dds_johar@kihn.biz\",\"gender\":\"female\",\"status\":\"active\"},{\"id\":24,\"name\":\"Kumar Pillai\",\"email\":\"pillai_kumar@monahan.io\",\"gender\":\"female\",\"status\":\"active\"},{\"id\":26,\"name\":\"Sheela Butt\",\"email\":\"sheela_butt@hand.com\",\"gender\":\"female\",\"status\":\"active\"},{\"id\":27,\"name\":\"Rakesh Acharya\",\"email\":\"rakesh_acharya@kautzer.org\",\"gender\":\"female\",\"status\":\"active\"},{\"id\":30,\"name\":\"Mina Khatri\",\"email\":\"khatri_mina@johns.info\",\"gender\":\"female\",\"status\":\"active\"},{\"id\":33,\"name\":\"Sloka Pillai\",\"email\":\"sloka_pillai@green-boehm.com\",\"gender\":\"male\",\"status\":\"active\"},{\"id\":34,\"name\":\"Menka Shukla\",\"email\":\"shukla_menka@jenkins.co\",\"gender\":\"male\",\"status\":\"active\"}]}","line":30}},{"name":"status 200","result":{"duration":8885,"status":"passed"},"match":{"location":"karate","arguments":[]},"keyword":"Then","line":31},{"name":"def jsonResponse = response","result":{"duration":18455,"status":"passed"},"match":{"location":"karate","arguments":[]},"keyword":"*","line":32},{"name":"print jsonResponse","result":{"duration":796089,"status":"passed"},"match":{"location":"karate","arguments":[]},"keyword":"*","line":33,"doc_string":{"content_type":"","value":"21:33:59.235 [print] {\n  \"data\": [\n    {\n      \"gender\": \"male\",\n      \"name\": \"ABC\",\n      \"id\": 1688,\n      \"email\": \"XYZ@gmail.com\",\n      \"status\": \"active\"\n    },\n    {\n      \"gender\": \"male\",\n      \"name\": \"Vladimir Kuzmitsky\",\n      \"id\": 2078,\n      \"email\": \"v.kuzmitsky@gmail.com\",\n      \"status\": \"active\"\n    },\n    {\n      \"gender\": \"male\",\n      \"name\": \"Brandon Williamson\",\n      \"id\": 2079,\n      \"email\": \"Nettie97@yahoo.com\",\n      \"status\": \"active\"\n    },\n    {\n      \"gender\": \"male\",\n      \"name\": \"Sharvari\",\n      \"id\": 1691,\n      \"email\": \"test@example.com\",\n      \"status\": \"active\"\n    },\n    {\n      \"gender\": \"male\",\n      \"name\": \"Michael Poo\",\n      \"id\": 2080,\n      \"email\": \"1npxS1xOo5@mail.ru\",\n      \"status\": \"active\"\n    },\n    {\n      \"gender\": \"male\",\n      \"name\": \"Hakobioos\",\n      \"id\": 2081,\n      \"email\": \"Hakobioos@gmaill.com\",\n      \"status\": \"active\"\n    },\n    {\n      \"gender\": \"male\",\n      \"name\": \"Hakobiolos\",\n      \"id\": 2082,\n      \"email\": \"Hakobiooos@gmaill.com\",\n      \"status\": \"active\"\n    },\n    {\n      \"gender\": \"male\",\n      \"name\": \"Msgr. Tara Trivedi\",\n      \"id\": 12,\n      \"email\": \"tara_trivedi_msgr@auer.co\",\n      \"status\": \"active\"\n    },\n    {\n      \"gender\": \"male\",\n      \"name\": \"Chaturaanan Kakkar\",\n      \"id\": 13,\n      \"email\": \"kakkar_chaturaanan@yost.com\",\n      \"status\": \"active\"\n    },\n    {\n      \"gender\": \"male\",\n      \"name\": \"Chandani Embranthiri\",\n      \"id\": 15,\n      \"email\": \"chandani_embranthiri@thompson-feeney.com\",\n      \"status\": \"active\"\n    },\n    {\n      \"gender\": \"male\",\n      \"name\": \"Balaji Petkar\",\n      \"id\": 68,\n      \"email\": \"Lifeofrules@gmail.com\",\n      \"status\": \"active\"\n    },\n    {\n      \"gender\": \"female\",\n      \"name\": \"Chidambaram Tagore\",\n      \"id\": 20,\n      \"email\": \"tagore_chidambaram@rogahn.info\",\n      \"status\": \"active\"\n    },\n    {\n      \"gender\": \"female\",\n      \"name\": \"Chandrakala Rana\",\n      \"id\": 21,\n      \"email\": \"rana_chandrakala@hayes.io\",\n      \"status\": \"active\"\n    },\n    {\n      \"gender\": \"female\",\n      \"name\": \"Chidaakaash Johar DDS\",\n      \"id\": 23,\n      \"email\": \"chidaakaash_dds_johar@kihn.biz\",\n      \"status\": \"active\"\n    },\n    {\n      \"gender\": \"female\",\n      \"name\": \"Kumar Pillai\",\n      \"id\": 24,\n      \"email\": \"pillai_kumar@monahan.io\",\n      \"status\": \"active\"\n    },\n    {\n      \"gender\": \"female\",\n      \"name\": \"Sheela Butt\",\n      \"id\": 26,\n      \"email\": \"sheela_butt@hand.com\",\n      \"status\": \"active\"\n    },\n    {\n      \"gender\": \"female\",\n      \"name\": \"Rakesh Acharya\",\n      \"id\": 27,\n      \"email\": \"rakesh_acharya@kautzer.org\",\n      \"status\": \"active\"\n    },\n    {\n      \"gender\": \"female\",\n      \"name\": \"Mina Khatri\",\n      \"id\": 30,\n      \"email\": \"khatri_mina@johns.info\",\n      \"status\": \"active\"\n    },\n    {\n      \"gender\": \"male\",\n      \"name\": \"Sloka Pillai\",\n      \"id\": 33,\n      \"email\": \"sloka_pillai@green-boehm.com\",\n      \"status\": \"active\"\n    },\n    {\n      \"gender\": \"male\",\n      \"name\": \"Menka Shukla\",\n      \"id\": 34,\n      \"email\": \"shukla_menka@jenkins.co\",\n      \"status\": \"active\"\n    }\n  ],\n  \"meta\": {\n    \"pagination\": {\n      \"total\": 1140,\n      \"pages\": 57,\n      \"limit\": 20,\n      \"links\": {\n        \"next\": \"https:\/\/gorest.co.in\/public\/v1\/users?page=2\",\n        \"current\": \"https:\/\/gorest.co.in\/public\/v1\/users?page=1\",\n        \"previous\": null\n      },\n      \"page\": 1\n    }\n  }\n}","line":33}},{"name":"def userCount = jsonResponse.data.length","result":{"duration":10358158,"status":"passed"},"match":{"location":"karate","arguments":[]},"keyword":"*","line":34},{"name":"print userCount","result":{"duration":198111,"status":"passed"},"match":{"location":"karate","arguments":[]},"keyword":"*","line":35,"doc_string":{"content_type":"","value":"21:33:59.245 [print] 20","line":35}}]}],"name":"src\/test\/java\/features\/getapi.feature","description":"GET API feature","id":"get-api-feature","keyword":"Feature","uri":"src\/test\/java\/features\/getapi.feature"}]