[{"line":1,"elements":[{"line":3,"name":"get all active users","description":"","id":"get-all-active-users","type":"scenario","keyword":"Scenario","steps":[{"name":"def query = {status:'active', gender: 'female', id:23}","result":{"duration":2394122,"status":"passed"},"match":{"location":"karate","arguments":[]},"keyword":"*","line":4},{"name":"url baseUrl+'\/public\/v1\/users'","result":{"duration":2822985,"status":"passed"},"match":{"location":"karate","arguments":[]},"keyword":"Given","line":5},{"name":"params query","result":{"duration":231639,"status":"passed"},"match":{"location":"karate","arguments":[]},"keyword":"And","line":6},{"name":"method GET","result":{"duration":827228726,"status":"passed"},"match":{"location":"karate","arguments":[]},"keyword":"When","line":7,"doc_string":{"content_type":"","value":"21:54:44.083 request:\n1 > GET https:\/\/gorest.co.in\/public\/v1\/users?status=active&gender=female&id=23\n1 > Accept-Encoding: gzip,deflate\n1 > Connection: Keep-Alive\n1 > Host: gorest.co.in\n1 > User-Agent: Apache-HttpClient\/4.5.12 (Java\/1.8.0_261)\n\n21:54:44.568 response time in milliseconds: 480.90\n1 < 200\n1 < Cache-Control: max-age=0, private, must-revalidate\n1 < Connection: keep-alive\n1 < Content-Type: application\/json; charset=utf-8\n1 < Date: Tue, 21 Dec 2021 16:24:44 GMT\n1 < ETag: W\/\"5562abb049aa112a1d9fa48dbcbeda35\"\n1 < Referrer-Policy: strict-origin-when-cross-origin\n1 < Server: nginx\n1 < Strict-Transport-Security: max-age=63072000; includeSubDomains\n1 < Transfer-Encoding: chunked\n1 < Vary: [Accept-Encoding, Origin]\n1 < X-Content-Type-Options: nosniff\n1 < X-Download-Options: noopen\n1 < X-Frame-Options: SAMEORIGIN\n1 < X-Permitted-Cross-Domain-Policies: none\n1 < X-Request-Id: 2fb55651-de58-4a1e-a1e9-e091c36c3228\n1 < X-Runtime: 0.005469\n1 < X-XSS-Protection: 0\n{\"meta\":{\"pagination\":{\"total\":1,\"pages\":1,\"page\":1,\"limit\":20,\"links\":{\"previous\":null,\"current\":\"https:\/\/gorest.co.in\/public\/v1\/users?page=1\",\"next\":null}}},\"data\":[{\"id\":23,\"name\":\"Chidaakaash Johar DDS\",\"email\":\"chidaakaash_dds_johar@kihn.biz\",\"gender\":\"female\",\"status\":\"active\"}]}","line":7}},{"name":"status 200","result":{"duration":11341,"status":"passed"},"match":{"location":"karate","arguments":[]},"keyword":"Then","line":8},{"name":"print response","result":{"duration":343998,"status":"passed"},"match":{"location":"karate","arguments":[]},"keyword":"*","line":9,"doc_string":{"content_type":"","value":"21:54:44.570 [print] {\n  \"data\": [\n    {\n      \"gender\": \"female\",\n      \"name\": \"Chidaakaash Johar DDS\",\n      \"id\": 23,\n      \"email\": \"chidaakaash_dds_johar@kihn.biz\",\n      \"status\": \"active\"\n    }\n  ],\n  \"meta\": {\n    \"pagination\": {\n      \"total\": 1,\n      \"pages\": 1,\n      \"limit\": 20,\n      \"links\": {\n        \"next\": null,\n        \"current\": \"https:\/\/gorest.co.in\/public\/v1\/users?page=1\",\n        \"previous\": null\n      },\n      \"page\": 1\n    }\n  }\n}","line":9}}]},{"line":12,"name":"get all active users and get the count","description":"","id":"get-all-active-users-and-get-the-count","type":"scenario","keyword":"Scenario","steps":[{"name":"def query = {status:'active'}","result":{"duration":133054,"status":"passed"},"match":{"location":"karate","arguments":[]},"keyword":"*","line":13},{"name":"url baseUrl+'\/public\/v1\/users'","result":{"duration":345531,"status":"passed"},"match":{"location":"karate","arguments":[]},"keyword":"Given","line":14},{"name":"params query","result":{"duration":70784,"status":"passed"},"match":{"location":"karate","arguments":[]},"keyword":"And","line":15},{"name":"method GET","result":{"duration":100702479,"status":"passed"},"match":{"location":"karate","arguments":[]},"keyword":"When","line":16,"doc_string":{"content_type":"","value":"21:54:44.577 request:\n1 > GET https:\/\/gorest.co.in\/public\/v1\/users?status=active\n1 > Accept-Encoding: gzip,deflate\n1 > Connection: Keep-Alive\n1 > Host: gorest.co.in\n1 > User-Agent: Apache-HttpClient\/4.5.12 (Java\/1.8.0_261)\n\n21:54:44.676 response time in milliseconds: 98.01\n1 < 200\n1 < Cache-Control: max-age=0, private, must-revalidate\n1 < Connection: keep-alive\n1 < Content-Type: application\/json; charset=utf-8\n1 < Date: Tue, 21 Dec 2021 16:24:44 GMT\n1 < ETag: W\/\"b0292a638de384bb25c3d30331516977\"\n1 < Referrer-Policy: strict-origin-when-cross-origin\n1 < Server: nginx\n1 < Strict-Transport-Security: max-age=63072000; includeSubDomains\n1 < Transfer-Encoding: chunked\n1 < Vary: [Accept-Encoding, Origin]\n1 < X-Content-Type-Options: nosniff\n1 < X-Download-Options: noopen\n1 < X-Frame-Options: SAMEORIGIN\n1 < X-Permitted-Cross-Domain-Policies: none\n1 < X-Request-Id: dac52a2d-f296-4fa4-b621-0c983fa5940c\n1 < X-Runtime: 0.007270\n1 < X-XSS-Protection: 0\n{\"meta\":{\"pagination\":{\"total\":1194,\"pages\":60,\"page\":1,\"limit\":20,\"links\":{\"previous\":null,\"current\":\"https:\/\/gorest.co.in\/public\/v1\/users?page=1\",\"next\":\"https:\/\/gorest.co.in\/public\/v1\/users?page=2\"}}},\"data\":[{\"id\":1688,\"name\":\"ABC\",\"email\":\"XYZ@gmail.com\",\"gender\":\"male\",\"status\":\"active\"},{\"id\":2078,\"name\":\"Vladimir Kuzmitsky\",\"email\":\"v.kuzmitsky@gmail.com\",\"gender\":\"male\",\"status\":\"active\"},{\"id\":2079,\"name\":\"Brandon Williamson\",\"email\":\"Nettie97@yahoo.com\",\"gender\":\"male\",\"status\":\"active\"},{\"id\":1691,\"name\":\"Sharvari\",\"email\":\"test@example.com\",\"gender\":\"male\",\"status\":\"active\"},{\"id\":2080,\"name\":\"Michael Poo\",\"email\":\"1npxS1xOo5@mail.ru\",\"gender\":\"male\",\"status\":\"active\"},{\"id\":2081,\"name\":\"Hakobioos\",\"email\":\"Hakobioos@gmaill.com\",\"gender\":\"male\",\"status\":\"active\"},{\"id\":2082,\"name\":\"Hakobiolos\",\"email\":\"Hakobiooos@gmaill.com\",\"gender\":\"male\",\"status\":\"active\"},{\"id\":12,\"name\":\"Msgr. Tara Trivedi\",\"email\":\"tara_trivedi_msgr@auer.co\",\"gender\":\"male\",\"status\":\"active\"},{\"id\":13,\"name\":\"Chaturaanan Kakkar\",\"email\":\"kakkar_chaturaanan@yost.com\",\"gender\":\"male\",\"status\":\"active\"},{\"id\":15,\"name\":\"Chandani Embranthiri\",\"email\":\"chandani_embranthiri@thompson-feeney.com\",\"gender\":\"male\",\"status\":\"active\"},{\"id\":68,\"name\":\"Balaji Petkar\",\"email\":\"Lifeofrules@gmail.com\",\"gender\":\"male\",\"status\":\"active\"},{\"id\":20,\"name\":\"Chidambaram Tagore\",\"email\":\"tagore_chidambaram@rogahn.info\",\"gender\":\"female\",\"status\":\"active\"},{\"id\":21,\"name\":\"Chandrakala Rana\",\"email\":\"rana_chandrakala@hayes.io\",\"gender\":\"female\",\"status\":\"active\"},{\"id\":23,\"name\":\"Chidaakaash Johar DDS\",\"email\":\"chidaakaash_dds_johar@kihn.biz\",\"gender\":\"female\",\"status\":\"active\"},{\"id\":24,\"name\":\"Kumar Pillai\",\"email\":\"pillai_kumar@monahan.io\",\"gender\":\"female\",\"status\":\"active\"},{\"id\":26,\"name\":\"Sheela Butt\",\"email\":\"sheela_butt@hand.com\",\"gender\":\"female\",\"status\":\"active\"},{\"id\":27,\"name\":\"Rakesh Acharya\",\"email\":\"rakesh_acharya@kautzer.org\",\"gender\":\"female\",\"status\":\"active\"},{\"id\":30,\"name\":\"Mina Khatri\",\"email\":\"khatri_mina@johns.info\",\"gender\":\"female\",\"status\":\"active\"},{\"id\":33,\"name\":\"Sloka Pillai\",\"email\":\"sloka_pillai@green-boehm.com\",\"gender\":\"male\",\"status\":\"active\"},{\"id\":34,\"name\":\"Menka Shukla\",\"email\":\"shukla_menka@jenkins.co\",\"gender\":\"male\",\"status\":\"active\"}]}","line":16}},{"name":"status 200","result":{"duration":7396,"status":"passed"},"match":{"location":"karate","arguments":[]},"keyword":"Then","line":17},{"name":"def jsonResponse = response","result":{"duration":17783,"status":"passed"},"match":{"location":"karate","arguments":[]},"keyword":"*","line":18},{"name":"print jsonResponse","result":{"duration":913265,"status":"passed"},"match":{"location":"karate","arguments":[]},"keyword":"*","line":19,"doc_string":{"content_type":"","value":"21:54:44.678 [print] {\n  \"data\": [\n    {\n      \"gender\": \"male\",\n      \"name\": \"ABC\",\n      \"id\": 1688,\n      \"email\": \"XYZ@gmail.com\",\n      \"status\": \"active\"\n    },\n    {\n      \"gender\": \"male\",\n      \"name\": \"Vladimir Kuzmitsky\",\n      \"id\": 2078,\n      \"email\": \"v.kuzmitsky@gmail.com\",\n      \"status\": \"active\"\n    },\n    {\n      \"gender\": \"male\",\n      \"name\": \"Brandon Williamson\",\n      \"id\": 2079,\n      \"email\": \"Nettie97@yahoo.com\",\n      \"status\": \"active\"\n    },\n    {\n      \"gender\": \"male\",\n      \"name\": \"Sharvari\",\n      \"id\": 1691,\n      \"email\": \"test@example.com\",\n      \"status\": \"active\"\n    },\n    {\n      \"gender\": \"male\",\n      \"name\": \"Michael Poo\",\n      \"id\": 2080,\n      \"email\": \"1npxS1xOo5@mail.ru\",\n      \"status\": \"active\"\n    },\n    {\n      \"gender\": \"male\",\n      \"name\": \"Hakobioos\",\n      \"id\": 2081,\n      \"email\": \"Hakobioos@gmaill.com\",\n      \"status\": \"active\"\n    },\n    {\n      \"gender\": \"male\",\n      \"name\": \"Hakobiolos\",\n      \"id\": 2082,\n      \"email\": \"Hakobiooos@gmaill.com\",\n      \"status\": \"active\"\n    },\n    {\n      \"gender\": \"male\",\n      \"name\": \"Msgr. Tara Trivedi\",\n      \"id\": 12,\n      \"email\": \"tara_trivedi_msgr@auer.co\",\n      \"status\": \"active\"\n    },\n    {\n      \"gender\": \"male\",\n      \"name\": \"Chaturaanan Kakkar\",\n      \"id\": 13,\n      \"email\": \"kakkar_chaturaanan@yost.com\",\n      \"status\": \"active\"\n    },\n    {\n      \"gender\": \"male\",\n      \"name\": \"Chandani Embranthiri\",\n      \"id\": 15,\n      \"email\": \"chandani_embranthiri@thompson-feeney.com\",\n      \"status\": \"active\"\n    },\n    {\n      \"gender\": \"male\",\n      \"name\": \"Balaji Petkar\",\n      \"id\": 68,\n      \"email\": \"Lifeofrules@gmail.com\",\n      \"status\": \"active\"\n    },\n    {\n      \"gender\": \"female\",\n      \"name\": \"Chidambaram Tagore\",\n      \"id\": 20,\n      \"email\": \"tagore_chidambaram@rogahn.info\",\n      \"status\": \"active\"\n    },\n    {\n      \"gender\": \"female\",\n      \"name\": \"Chandrakala Rana\",\n      \"id\": 21,\n      \"email\": \"rana_chandrakala@hayes.io\",\n      \"status\": \"active\"\n    },\n    {\n      \"gender\": \"female\",\n      \"name\": \"Chidaakaash Johar DDS\",\n      \"id\": 23,\n      \"email\": \"chidaakaash_dds_johar@kihn.biz\",\n      \"status\": \"active\"\n    },\n    {\n      \"gender\": \"female\",\n      \"name\": \"Kumar Pillai\",\n      \"id\": 24,\n      \"email\": \"pillai_kumar@monahan.io\",\n      \"status\": \"active\"\n    },\n    {\n      \"gender\": \"female\",\n      \"name\": \"Sheela Butt\",\n      \"id\": 26,\n      \"email\": \"sheela_butt@hand.com\",\n      \"status\": \"active\"\n    },\n    {\n      \"gender\": \"female\",\n      \"name\": \"Rakesh Acharya\",\n      \"id\": 27,\n      \"email\": \"rakesh_acharya@kautzer.org\",\n      \"status\": \"active\"\n    },\n    {\n      \"gender\": \"female\",\n      \"name\": \"Mina Khatri\",\n      \"id\": 30,\n      \"email\": \"khatri_mina@johns.info\",\n      \"status\": \"active\"\n    },\n    {\n      \"gender\": \"male\",\n      \"name\": \"Sloka Pillai\",\n      \"id\": 33,\n      \"email\": \"sloka_pillai@green-boehm.com\",\n      \"status\": \"active\"\n    },\n    {\n      \"gender\": \"male\",\n      \"name\": \"Menka Shukla\",\n      \"id\": 34,\n      \"email\": \"shukla_menka@jenkins.co\",\n      \"status\": \"active\"\n    }\n  ],\n  \"meta\": {\n    \"pagination\": {\n      \"total\": 1194,\n      \"pages\": 60,\n      \"limit\": 20,\n      \"links\": {\n        \"next\": \"https:\/\/gorest.co.in\/public\/v1\/users?page=2\",\n        \"current\": \"https:\/\/gorest.co.in\/public\/v1\/users?page=1\",\n        \"previous\": null\n      },\n      \"page\": 1\n    }\n  }\n}","line":19}},{"name":"def userCount = jsonResponse.data.length","result":{"duration":9595468,"status":"passed"},"match":{"location":"karate","arguments":[]},"keyword":"*","line":20},{"name":"print userCount","result":{"duration":186679,"status":"passed"},"match":{"location":"karate","arguments":[]},"keyword":"*","line":21,"doc_string":{"content_type":"","value":"21:54:44.688 [print] 20","line":21}},{"name":"match userCount == 20","result":{"duration":3192943,"status":"passed"},"match":{"location":"karate","arguments":[]},"keyword":"*","line":22}]}],"name":"src\/test\/java\/features\/getapiwithquery.feature","description":"GET API with Query Parameters","id":"get-api-with-query-parameters","keyword":"Feature","uri":"src\/test\/java\/features\/getapiwithquery.feature"}]